…
    ## # A tibble: 1 x 1
    ##    accuracy
    ##       <dbl>
    ## 1 0.5595238

``` r
test %>%
  mutate(lda_post = lda_pred$posterior[, 1])
```

    ## # A tibble: 252 x 12
    ##     Year   Lag1   Lag2   Lag3   Lag4   Lag5 Volume  Today Direction
    ##    <dbl>  <dbl>  <dbl>  <dbl>  <dbl>  <dbl>  <dbl>  <dbl>    <fctr>
    ##  1  2005 -0.134  0.008 -0.007  0.715 -0.431 0.7869 -0.812      Down
    ##  2  2005 -0.812 -0.134  0.008 -0.007  0.715 1.5108 -1.167      Down
    ##  3  2005 -1.167 -0.812 -0.134  0.008 -0.007 1.7210 -0.363      Down
    ##  4  2005 -0.363 -1.167 -0.812 -0.134  0.008 1.7389  0.351        Up
    ##  5  2005  0.351 -0.363 -1.167 -0.812 -0.134 1.5691 -0.143      Down
    ##  6  2005 -0.143  0.351 -0.363 -1.167 -0.812 1.4779  0.342        Up
    ##  7  2005  0.342 -0.143  0.351 -0.363 -1.167 1.4904 -0.610      Down
    ##  8  2005 -0.610  0.342 -0.143  0.351 -0.363 1.4888  0.398        Up
    ##  9  2005  0.398 -0.610  0.342 -0.143  0.351 1.5621 -0.863      Down
    ## 10  2005 -0.863  0.398 -0.610  0.342 -0.143 1.5103  0.600        Up
    ## # ... with 242 more rows, and 3 more variables: pred <dbl>,
    ## #   pred_dir <chr>, lda_post <dbl>
…
